[{
    "model": "evoteadmin.secretentry",
    "pk": 1,
    "fields": {
        "created": "2016-11-11T12:37:38.026Z",
        "modified": "2016-11-11T12:52:45.710Z",
        "user": 99,
        "identifier": 6,
        "body": "-----BEGIN CERTIFICATE-----\r\nMIIDADCCAegCCQDkxKU6ZysN4jANBgkqhkiG9w0BAQsFADBCMQswCQYDVQQGEwJY\r\nWDEVMBMGA1UEBwwMRGVmYXVsdCBDaXR5MRwwGgYDVQQKDBNEZWZhdWx0IENvbXBh\r\nbnkgTHRkMB4XDTE2MTExMTEyMTQ0N1oXDTE2MTExMjEyMTQ0N1owQjELMAkGA1UE\r\nBhMCWFgxFTATBgNVBAcMDERlZmF1bHQgQ2l0eTEcMBoGA1UECgwTRGVmYXVsdCBD\r\nb21wYW55IEx0ZDCCASIwDQYJKoZIhvcNAQEBBQADggEPADCCAQoCggEBALji0C00\r\nBb9+oz9z+ygNmkRrR+ecPtQpv2hPZFbWUdZ02XCwr/FDfO3+B6mI7iULn04PbmIZ\r\n1r/MsVg7rqxE2ZqtztDfUGpJ6WkqvZbIzZkOgWYM/IkwEpMPsP4nnu8mtlSh1vRe\r\naqcnibIt9erKdBcmCo/VLqqdM0kXYSIKbzpgakoWTarVW4wm+lFnEhbtGzLYHdDK\r\n+0vXbidrfNYyjY8BL0U6+oO6lR01bmMZglEAqy6TPGcE9/O5cyIsjXOQqzmuu4+8\r\nJju+5uGklMZ0bcPXO7M+hl7vDHiHK2hvuNNioux0LTMCW7mXj+zcEsiIoqXDgtMX\r\nTpDYK6JHGeI18TsCAwEAATANBgkqhkiG9w0BAQsFAAOCAQEAHwq83NCmupUjSlHg\r\nNgbRhirA1pl29kjHD92KvGy/nZhuAvezcFniiZlcBq1fYoU8pA2F0JdeKn0ssZA2\r\noEVGetHSpFh+kCQGKu0KCENuVGFvJX6v9gMol1hIHCEviCK9VGC1ftSACpwBOIIQ\r\ninkIqAGsNH6wwrXnQFtu0q82VaI8owWkGbYyRTaOCYDsDhs7bdJ3sry/Xp61ABZf\r\nTn83lLOoz642VBNAbcPY5+bAFDTCdVpb1lthtoL4u3Ifzuco/G8RoOAIuhZNQRkU\r\nH0xkt7K7bq6W2gV7cEhhE90+9a427u1sPdrjgNgGlx5W006daZrsEimZFSGUPncC\r\nrxfxHg==\r\n-----END CERTIFICATE-----"
    }
},
{
    "model": "evoteadmin.secretentry",
    "pk": 2,
    "fields": {
        "created": "2016-11-11T12:39:35.867Z",
        "modified": "2016-11-11T12:39:35.867Z",
        "user": 99,
        "identifier": 7,
        "body": "-----BEGIN RSA PRIVATE KEY-----\r\nProc-Type: 4,ENCRYPTED\r\nDEK-Info: DES-EDE3-CBC,46A0B545AFFC94EA\r\n\r\nLg+ml0yRY4/Z1A9A3DQxSb9+fjTJapMVoeOxQxroLBPf76HQrju0cwYu7be36U+d\r\nRyXRJeQnigqe5tEpiE8POEPtX91ZqIslnUdI/EhHcrJ01Bm3d8qea3fK4t6MCZi1\r\nay+Iep1tgR/EQ6dTtrDdJWXUtv69Vft3U31fEyyAn5T5FI5VB9t4HW3JlMCSXQOu\r\nK5G2jcIobmbSBhDKe5ULf7i++SUAw+QmqFbz8JJ3EAseAU8+BFYnwYKT/bZWxoim\r\nYKCaI/O1pouyIShWuidSu0+luEM4IMCysYTXO0iGletojQRd+ciNa2NBb53PIYlp\r\neFLvJA0/qa4KUXSJZocMbS0WHy+iCtTSjiPR3mkyvQgottQcN7ftzclygKciF7ix\r\nuCmKaA9K8h4mR+HDERWi31p4Djn2bAJphtZ+06pK+wNUyWQYF+0pYiuNkvYdTAS6\r\ny/voY0E/452AmtqpCXXd9tHKE40mGbcIXw5//uq0SoMuxH3QVy7qlGvPc004eSYK\r\nCYlmNntACxUmaH440BqiCdFcBS+xFTXldb4PFhnhV5HO9BJbyLJaN47u3CVA6Vwu\r\nNvfxZhSDWAhC0TfqCLqe+NjcKuGrGeUuBmocpRSfpYKmcIMw/51aa2Tujplm58wt\r\n0dt2kwhPUOIjqeHW/RKlhSMS167nI5DSAT7gkAZN4elxpr4pSssyT53J4xK0ZFAt\r\nv7ZKQHwcU7EFVHCJ0AnMsAs+eL9vJvX8Iw1mpSL52a6/Hu9DNNIM6fef2ZunLwOL\r\npUPbtMk5s3vXJmPuvkzO8H83FDFMvh7iCaA3EIhWtLNebI8/yXGt72w8uOVL3nyE\r\n9ZueVZLoAofnnqD5a7ftr6niRj2ouVW0rbHuYly9MiwukxgVXd8cxg3Emtattln4\r\nwKBGdUM99oYVYGly2hKvtkntr2In4kdKwyVreAHoTaOt9DzS6k4RfaTp0JMw/+bA\r\n4lwUjJEydY78/lb6zMgJd0a8HaOjxoX1likiLjHr7nc5FCYV4tzIYFPrWvp6bPdv\r\nY6x57c55j1Au+LbSZ0m4EehH9y9maEAkpjlVznC7KVibmsdQY8kyMHVj/MtK+j5C\r\nWH/4QGMRDY/oKOewBppbTCnamzdLe6Jtwx+3XCxpgQuQXnyxXsqHrwUdwu2YEb+H\r\nTB3rcjiOorPtd091bwCEqoZmkl0iui0vCkIqH9iHdUoHudagi+aCS70TOlD59K2j\r\nJgutubszyyOE0myVm71yn5jTpFegEnkIIU3ggJY02PNJLZ1vJjr8AEoiONos+Veb\r\nyJMB8cWuNvZbrkpiT+a1PZX6bs4pZ7CTywpZDcUxXNpHduWdoGJhS7KqZ7IVBPpi\r\nzTF9q6LH1VtfxKDGPomK4NtAfWa6muMR9Ckb+rcOZ9dz0hfY+8p6IAE3OoLfZz2k\r\nXFbivbMSPPx9zwOc/zDML8h8k1Lu8dl9GKDNq8mbyLFfsCzx6vR96djNLkH+onXg\r\nbnW+yPgK+Z3gb9J59wtpmYXU24JpVLSGhVJ/RNnazb4l/8FuxN0zVOib/ZE6JPP8\r\nc4YVdsR6++pbtphSOnEBkGHjr42p7i/FqkhLuYVJ2HgH9DAcDd/DJxrn+uS4wAMc\r\n-----END RSA PRIVATE KEY-----"
    }
},
{
    "model": "evoteadmin.secretentry",
    "pk": 3,
    "fields": {
        "created": "2016-11-11T12:37:57.154Z",
        "modified": "2016-11-11T12:37:57.154Z",
        "user": 99,
        "identifier": 2,
        "body": "-----BEGIN CERTIFICATE-----\r\nMIICNTCCAR0CCQDkxKU6ZysN5TANBgkqhkiG9w0BAQsFADBCMQswCQYDVQQGEwJY\r\nWDEVMBMGA1UEBwwMRGVmYXVsdCBDaXR5MRwwGgYDVQQKDBNEZWZhdWx0IENvbXBh\r\nbnkgTHRkMB4XDTE2MTExMTEyMzY0OVoXDTI2MTEwOTEyMzY0OVowQjELMAkGA1UE\r\nBhMCWFgxFTATBgNVBAcMDERlZmF1bHQgQ2l0eTEcMBoGA1UECgwTRGVmYXVsdCBD\r\nb21wYW55IEx0ZDBZMBMGByqGSM49AgEGCCqGSM49AwEHA0IABKY15P4xcJUFt72t\r\nPzr7/vsFdYSNLb7KXm9v8ENaVUccknceid4ptFOrxm0Ai+GqXEgFrd6t5dg/Ncem\r\n/ryh6z0wDQYJKoZIhvcNAQELBQADggEBAHHn61GW3Mw/0Hc0Adh5j1VxyCjRR5F3\r\ne/gpb/zNGZGRivMq1wEwWcqffiZ+TWoed+9T1f/G3D41n0cazhwp+4haSm6rByrg\r\n8zh1X9ZVQKHGhZX/pVT+05VjXfnVkG98IPjMBpqu28ntaOXOPLkBbOd35fC/bKKm\r\ncl79W/rSzV17QNqOCTU3L04DeGr0Cjm+p9984DB8oP5nF1on0UZ+8fFSpwkVgddP\r\nwhja39hNR5hAl2smuVBwZ2j3sk6PMdFy2UEYlswpophRpVdBWjCTr+lXbWqb3iB9\r\nfIvcTcQK65H5FEqTyMK2NxpeDnKfuDNnKmUykAerU0rKgi+b/W5dlS0=\r\n-----END CERTIFICATE-----"
    }
},
{
    "model": "evoteadmin.secretentry",
    "pk": 4,
    "fields": {
        "created": "2016-11-11T12:38:57.584Z",
        "modified": "2016-11-11T12:38:57.585Z",
        "user": 99,
        "identifier": 3,
        "body": "-----BEGIN EC PRIVATE KEY-----\r\nMHcCAQEEILa/0mIeVqB2St2TA0jvXnhVSUSU/RIhKSVrDZH5Br+hoAoGCCqGSM49\r\nAwEHoUQDQgAEpjXk/jFwlQW3va0/Ovv++wV1hI0tvspeb2/wQ1pVRxySdx6J3im0\r\nU6vGbQCL4apcSAWt3q3l2D81x6b+vKHrPQ==\r\n-----END EC PRIVATE KEY-----"
    }
},
{
    "model": "evoteadmin.secretentry",
    "pk": 5,
    "fields": {
        "created": "2016-11-11T12:38:15.117Z",
        "modified": "2016-11-11T12:38:15.118Z",
        "user": 99,
        "identifier": 0,
        "body": "-----BEGIN CERTIFICATE-----\r\nMIIDVzCCAj+gAwIBAgIJAOkNBOwkWkz/MA0GCSqGSIb3DQEBCwUAMEIxCzAJBgNV\r\nBAYTAlhYMRUwEwYDVQQHDAxEZWZhdWx0IENpdHkxHDAaBgNVBAoME0RlZmF1bHQg\r\nQ29tcGFueSBMdGQwHhcNMTYxMTExMTIwOTEwWhcNMjYxMTA5MTIwOTEwWjBCMQsw\r\nCQYDVQQGEwJYWDEVMBMGA1UEBwwMRGVmYXVsdCBDaXR5MRwwGgYDVQQKDBNEZWZh\r\ndWx0IENvbXBhbnkgTHRkMIIBIjANBgkqhkiG9w0BAQEFAAOCAQ8AMIIBCgKCAQEA\r\nvMuEf1KSC7ITkPxRF9ml4a56u/2MPhc/SJDIBP1H3cJSdVDrmgb2i3J2VC2wNzjC\r\n1KxcvcLhuJe771SZDHW7aLT5eVYjvbFGF24D4x0a99WN70ujy59wWpIbB2JuQUPG\r\nmIWhzGBMYND04rFy4pTCP9JmfGUJc3lCvBiKhtmyy77GP8bvnG31EtCnMGI0cY+k\r\nksE7GY7Q4yahsMCGA5JHUaEE2q+Bflee14b14vT0KnLszrzlepoZKFm4iSC9wBQj\r\n+s1yrpHXMk9UqFEBvxXHrKT3iGmDkBJ364eH9pjGvZFvLHYEuHWDOOmZ8bVtK1Sz\r\n0Ck2/4bWrT4ymoX+D7oc5wIDAQABo1AwTjAdBgNVHQ4EFgQUXUmMZlwzlE3+TnAb\r\nv/YAuueWlOYwHwYDVR0jBBgwFoAUXUmMZlwzlE3+TnAbv/YAuueWlOYwDAYDVR0T\r\nBAUwAwEB/zANBgkqhkiG9w0BAQsFAAOCAQEAt9bN9qjGT19pU5tm9O92JWfOL+Ny\r\nA+9qnOy7Ydaci7RM/+MHBIuRa+6CZw0geDLGkgMdteU11OTSuYDmmXe6YjsGhxxS\r\nmyVQ1N2U2cb9v+m8J2LdVH00/BrGrm26ABRNU5qIWhJDZhnj8XeYTiGf+u+LkZ0m\r\ndC2iYU1HU74PwWEMgQqlca3TWb/7Ds7NckxH6ax9KZIque30Oxaeq9Lya8dVVdxg\r\nuuXKxMrOEZPvUWQM+kzlNsyWle7RW/ymLt6j33dVrq7TYpsWZ3dxeVEX0SQBJd3N\r\nFKOuOuCq0TZnr9Mq6A5f6hinLh/DYGHKuvMGX2XMZvcEOdSRUJ3YDEEHWQ==\r\n-----END CERTIFICATE-----"
    }
},
{
    "model": "evoteadmin.secretentry",
    "pk": 6,
    "fields": {
        "created": "2016-11-11T12:38:35.997Z",
        "modified": "2016-11-11T12:38:35.997Z",
        "user": 99,
        "identifier": 1,
        "body": "-----BEGIN RSA PRIVATE KEY-----\r\nProc-Type: 4,ENCRYPTED\r\nDEK-Info: DES-EDE3-CBC,93479E4327D62E11\r\n\r\nGO4vwtMlpxKHpzRk0Gg70uIwvSZXcPsoK32DJOSnsd/ChzEwmnkDEvO5EE5SIqs7\r\nXBa+SZRjMUjtb5oxzXA9rfJ9iKfmrBmIsWPNi0uPiiXpNgAGIGH8W+C1bxVoc2TV\r\nMeAqq6cihwWC5QGRAvPVxDENmvBoAWgEniSlKW17GtbhwTleOShEX4afy4F1ixDL\r\nQhSdNy1AIogBC/uA7eTeNc3QiHdQZ+TCSLJUIjLIlmtqTMDZDZHKPfRDe8MHaXRg\r\nJ1DXYM889QIAvJSX//hCLAwcpY2ugjRrK1paev7HNKSHuTUdjCAsaPnWdIXZ/rDX\r\nCA+vEuoMYhZXmTcK4kfCzY2aCifCigj4fGUWaHIGV2CFLejkVkK7qoRCW+nupdGn\r\n2Ay5p8JmJZtfMc0iRTpTiPnioX89djgfXZgzppVWw0ZJCofbmdFdA3G7EgrXanwb\r\neAqTqgp59uwMAzfmugw3cIw2IZEuS6gHt3Xr7PckU/35TRV9cTptwE56ZCp3hLan\r\nqundKvesZYY5EJyqM6GkG1hEvbHocs9NHCFq1M9YD2vtCrWoMdG8N/ysoS6thFg8\r\nTgjZKBHp+aaD3G1HFVAmiOcik1tK84965WgptzNppa6vN8JxXY3g87rnjbacpf0s\r\nYYVS1zW8D0sebcleCEQFsVn9PCXhCaZ2/bO1l19e/xb9SspBTbdJO0V+2t7uUFpa\r\nggkqCRsDhk705d190TLK0OF1krdtsyPYhk9hR/IykxiZrTLkMKlKliy3d2A9l/u+\r\nLriM/Y0xX4Zbaga0ZlCtJz0GjIu4+RwBaSf4TWf9WmYOc8/3NJRPH87ntWqY/GWS\r\nIyuQ16JNSG4qxE79bmIRy5TBnp6VgAHW5n/IbceTmkdwnL0Pf2Ysoo3SXZWCZ3+K\r\nJkC7yR/EVIa9WYzgoQvayuXUXUQfT3E1l7vPhRFN2kH2ilCDn+dACLnpOxcg7fO0\r\nOt5nZLb7jE5qFQZF5EVlBETUWfxEWh/dMYl4RgESN9WK6o1kM79gGjNK38nCKmEj\r\nCrdPHxnpB6WdeLssNcD/k6Gch6na7Xxx+g0ezXFxu7tr7ifo221iyhzyoJGg7h5r\r\n6lWeAuAaYq3TFStPYWC94P3XTJHnvrrAM8uSABDhCsyNdry4woqVpyZ5rOB01iAR\r\nOzTfujWfEryjKKJ71eDHKu4Jcvpjmew0+KLBePLNip6awjCB3X/Pbye/C76my3mZ\r\n/5t+eKj49RYGy4nuju8dHVKpRyaq/erXHIXK0ByolKwJXonQ2Y4Fq3saAONxe548\r\nUje4YUtFRDwuZVCKWBBbz8rQeoXQCe+GjwTRgNe5pc8CrwPSmRAgXfXJh8FHhl5W\r\ngSTgqiQl7xtlB2cHH1iJcxfzZQa3i2DEZBwSPgEGui3bwU6AL6M4cSvH/IGrRXcw\r\nwhxJNRNDdCmzUoBhOLb6+UsxKin6rjptl9gqgyOlPkvbqw54B1QwD8RZecg4z6hu\r\n1QLcBRTOO7Fr/5GSwwXN5jg5kIn4P9rWnEZ4iT5f3CyxbpHxLEqmORK1hc02Cw0K\r\neX4Y8PV7pjP5j517P94ehsygSc0hVdZacCPyZ0ijVh1C0iJcUdf/0nH39Xo3enh2\r\n-----END RSA PRIVATE KEY-----"
    }
}]
